module i2c-go

go 1.21.1

require github.com/d2r2/go-i2c v0.0.0-20191123181816-73a8a799d6bc

require (
	github.com/d2r2/go-logger v0.0.0-20210606094344-60e9d1233e22 // indirect
	github.com/davecgh/go-spew v1.1.1 // indirect
)
