module gcpfunctions

go 1.22.6

require (
	cloud.google.com/go/firestore v1.17.0
	firebase.google.com/go v3.13.0+incompatible
	github.com/GoogleCloudPlatform/functions-framework-go v1.9.0
	google.golang.org/api v0.197.0
)

require (
	cloud.google.com/go v0.115.1 // indirect
	cloud.google.com/go/auth v0.9.3 // indirect
	cloud.google.com/go/auth/oauth2adapt v0.2.4 // indirect
	cloud.google.com/go/compute/metadata v0.5.0 // indirect
	cloud.google.com/go/iam v1.2.0 // indirect
	cloud.google.com/go/longrunning v0.6.0 // indirect
	cloud.google.com/go/storage v1.43.0 // indirect
	github.com/cloudevents/sdk-go/v2 v2.15.2 // indirect
	github.com/felixge/httpsnoop v1.0.4 // indirect
	github.com/go-logr/logr v1.4.2 // indirect
	github.com/go-logr/stdr v1.2.2 // indirect
	github.com/golang/groupcache v0.0.0-20210331224755-41bb18bfe9da // indirect
	github.com/golang/protobuf v1.5.4 // indirect
	github.com/google/s2a-go v0.1.8 // indirect
	github.com/google/uuid v1.6.0 // indirect
	github.com/googleapis/enterprise-certificate-proxy v0.3.4 // indirect
	github.com/googleapis/gax-go/v2 v2.13.0 // indirect
	github.com/json-iterator/go v1.1.10 // indirect
	github.com/modern-go/concurrent v0.0.0-20180228061459-e0a39a4cb421 // indirect
	github.com/modern-go/reflect2 v0.0.0-20180701023420-4b7aa43c6742 // indirect
	go.opencensus.io v0.24.0 // indirect
	go.opentelemetry.io/contrib/instrumentation/google.golang.org/grpc/otelgrpc v0.54.0 // indirect
	go.opentelemetry.io/contrib/instrumentation/net/http/otelhttp v0.54.0 // indirect
	go.opentelemetry.io/otel v1.29.0 // indirect
	go.opentelemetry.io/otel/metric v1.29.0 // indirect
	go.opentelemetry.io/otel/trace v1.29.0 // indirect
	go.uber.org/atomic v1.4.0 // indirect
	go.uber.org/multierr v1.1.0 // indirect
	go.uber.org/zap v1.10.0 // indirect
	golang.org/x/crypto v0.27.0 // indirect
	golang.org/x/net v0.29.0 // indirect
	golang.org/x/oauth2 v0.23.0 // indirect
	golang.org/x/sync v0.8.0 // indirect
	golang.org/x/sys v0.25.0 // indirect
	golang.org/x/text v0.18.0 // indirect
	golang.org/x/time v0.6.0 // indirect
	google.golang.org/appengine v1.6.8 // indirect
	google.golang.org/genproto v0.0.0-20240903143218-8af14fe29dc1 // indirect
	google.golang.org/genproto/googleapis/api v0.0.0-20240903143218-8af14fe29dc1 // indirect
	google.golang.org/genproto/googleapis/rpc v0.0.0-20240903143218-8af14fe29dc1 // indirect
	google.golang.org/grpc v1.66.1 // indirect
	google.golang.org/protobuf v1.34.2 // indirect
)
